data_cache_module/data_cache_wavedata.vcd
$date
	Fri Sep 20 02:27:45 2024
$end
$version
	Icarus Verilog
$end
$timescale
	1s
$end
$scope module data_cache_tb $end
$var wire 32 ! READDATA [31:0] $end
$var wire 128 " MEM_WRITEDATA [127:0] $end
$var wire 1 # MEM_WRITE $end
$var wire 128 $ MEM_READDATA [127:0] $end
$var wire 1 % MEM_READ $end
$var wire 1 & MEM_BUSYWAIT $end
$var wire 28 ' MEM_ADDRESS [27:0] $end
$var wire 1 ( BUSYWAIT $end
$var reg 32 ) ADDRESS [31:0] $end
$var reg 1 * CLK $end
$var reg 4 + READ_WRITE [3:0] $end
$var reg 1 , RESET $end
$var reg 32 - WRITEDATA [31:0] $end
$var integer 32 . j [31:0] $end
$scope module my_data_cache $end
$var wire 32 / ADDRESS [31:0] $end
$var wire 1 * CLK $end
$var wire 128 0 DATA_OUT [127:0] $end
$var wire 1 1 DIRTY_OUT $end
$var wire 1 2 HIT $end
$var wire 32 3 LW [31:0] $end
$var wire 4 4 READ_WRITE [3:0] $end
$var wire 1 , RESET $end
$var wire 24 5 TAG_OUT [23:0] $end
$var wire 1 6 VALID_OUT $end
$var wire 32 7 WRITEDATA [31:0] $end
$var wire 1 8 TAG_STATUS $end
$var wire 128 9 MEM_READDATA [127:0] $end
$var wire 1 & MEM_BUSYWAIT $end
$var wire 32 : LHU [31:0] $end
$var wire 32 ; LH [31:0] $end
$var wire 32 < LBU [31:0] $end
$var wire 32 = LB [31:0] $end
$var parameter 2 > IDLE $end
$var parameter 2 ? READ_MEM $end
$var parameter 2 @ UPDATE_CACHE $end
$var parameter 2 A WRITE_MEM $end
$var reg 1 ( BUSYWAIT $end
$var reg 8 B DATA_BYTE [7:0] $end
$var reg 16 C DATA_HALF [15:0] $end
$var reg 32 D DATA_WORD [31:0] $end
$var reg 28 E MEM_ADDRESS [27:0] $end
$var reg 1 % MEM_READ $end
$var reg 1 # MEM_WRITE $end
$var reg 128 F MEM_WRITEDATA [127:0] $end
$var reg 2 G NEXT_STATE [1:0] $end
$var reg 32 H READDATA [31:0] $end
$var reg 2 I STATE [1:0] $end
$var integer 32 J i [31:0] $end
$upscope $end
$scope module my_data_memory $end
$var wire 28 K ADDRESS [27:0] $end
$var wire 1 * CLK $end
$var wire 1 % READ $end
$var wire 1 , RESET $end
$var wire 1 # WRITE $end
$var wire 128 L WRITEDATA [127:0] $end
$var reg 1 & BUSYWAIT $end
$var reg 1 M READACCESS $end
$var reg 128 N READDATA [127:0] $end
$var reg 1 O WRITEACCESS $end
$var integer 32 P i [31:0] $end
$upscope $end
$upscope $end
$scope module data_cache_tb $end
$scope module my_data_cache $end
$var reg 128 Q \DATA[0] [127:0] $end
$upscope $end
$upscope $end
$scope module data_cache_tb $end
$scope module my_data_cache $end
$var reg 128 R \DATA[1] [127:0] $end
$upscope $end
$upscope $end
$scope module data_cache_tb $end
$scope module my_data_cache $end
$var reg 128 S \DATA[2] [127:0] $end
$upscope $end
$upscope $end
$scope module data_cache_tb $end
$scope module my_data_cache $end
$var reg 128 T \DATA[3] [127:0] $end
$upscope $end
$upscope $end
$scope module data_cache_tb $end
$scope module my_data_cache $end
$var reg 128 U \DATA[4] [127:0] $end
$upscope $end
$upscope $end
$scope module data_cache_tb $end
$scope module my_data_cache $end
$var reg 128 V \DATA[5] [127:0] $end
$upscope $end
$upscope $end
$scope module data_cache_tb $end
$scope module my_data_cache $end
$var reg 128 W \DATA[6] [127:0] $end
$upscope $end
$upscope $end
$scope module data_cache_tb $end
$scope module my_data_cache $end
$var reg 128 X \DATA[7] [127:0] $end
$upscope $end
$upscope $end
$scope module data_cache_tb $end
$scope module my_data_cache $end
$var reg 128 Y \DATA[8] [127:0] $end
$upscope $end
$upscope $end
$scope module data_cache_tb $end
$scope module my_data_cache $end
$var reg 128 Z \DATA[9] [127:0] $end
$upscope $end
$upscope $end
$scope module data_cache_tb $end
$scope module my_data_cache $end
$var reg 128 [ \DATA[10] [127:0] $end
$upscope $end
$upscope $end
$scope module data_cache_tb $end
$scope module my_data_cache $end
$var reg 128 \ \DATA[11] [127:0] $end
$upscope $end
$upscope $end
$scope module data_cache_tb $end
$scope module my_data_cache $end
$var reg 128 ] \DATA[12] [127:0] $end
$upscope $end
$upscope $end
$scope module data_cache_tb $end
$scope module my_data_cache $end
$var reg 128 ^ \DATA[13] [127:0] $end
$upscope $end
$upscope $end
$scope module data_cache_tb $end
$scope module my_data_cache $end
$var reg 128 _ \DATA[14] [127:0] $end
$upscope $end
$upscope $end
$scope module data_cache_tb $end
$scope module my_data_cache $end
$var reg 128 ` \DATA[15] [127:0] $end
$upscope $end
$upscope $end
$scope module data_cache_tb $end
$scope module my_data_cache $end
$var reg 24 a \TAG[0] [23:0] $end
$upscope $end
$upscope $end
$scope module data_cache_tb $end
$scope module my_data_cache $end
$var reg 24 b \TAG[1] [23:0] $end
$upscope $end
$upscope $end
$scope module data_cache_tb $end
$scope module my_data_cache $end
$var reg 24 c \TAG[2] [23:0] $end
$upscope $end
$upscope $end
$scope module data_cache_tb $end
$scope module my_data_cache $end
$var reg 24 d \TAG[3] [23:0] $end
$upscope $end
$upscope $end
$scope module data_cache_tb $end
$scope module my_data_cache $end
$var reg 24 e \TAG[4] [23:0] $end
$upscope $end
$upscope $end
$scope module data_cache_tb $end
$scope module my_data_cache $end
$var reg 24 f \TAG[5] [23:0] $end
$upscope $end
$upscope $end
$scope module data_cache_tb $end
$scope module my_data_cache $end
$var reg 24 g \TAG[6] [23:0] $end
$upscope $end
$upscope $end
$scope module data_cache_tb $end
$scope module my_data_cache $end
$var reg 24 h \TAG[7] [23:0] $end
$upscope $end
$upscope $end
$scope module data_cache_tb $end
$scope module my_data_cache $end
$var reg 24 i \TAG[8] [23:0] $end
$upscope $end
$upscope $end
$scope module data_cache_tb $end
$scope module my_data_cache $end
$var reg 24 j \TAG[9] [23:0] $end
$upscope $end
$upscope $end
$scope module data_cache_tb $end
$scope module my_data_cache $end
$var reg 24 k \TAG[10] [23:0] $end
$upscope $end
$upscope $end
$scope module data_cache_tb $end
$scope module my_data_cache $end
$var reg 24 l \TAG[11] [23:0] $end
$upscope $end
$upscope $end
$scope module data_cache_tb $end
$scope module my_data_cache $end
$var reg 24 m \TAG[12] [23:0] $end
$upscope $end
$upscope $end
$scope module data_cache_tb $end
$scope module my_data_cache $end
$var reg 24 n \TAG[13] [23:0] $end
$upscope $end
$upscope $end
$scope module data_cache_tb $end
$scope module my_data_cache $end
$var reg 24 o \TAG[14] [23:0] $end
$upscope $end
$upscope $end
$scope module data_cache_tb $end
$scope module my_data_cache $end
$var reg 24 p \TAG[15] [23:0] $end
$upscope $end
$upscope $end
$scope module data_cache_tb $end
$scope module my_data_cache $end
$var reg 1 q \DIRTY[0] $end
$upscope $end
$upscope $end
$scope module data_cache_tb $end
$scope module my_data_cache $end
$var reg 1 r \DIRTY[1] $end
$upscope $end
$upscope $end
$scope module data_cache_tb $end
$scope module my_data_cache $end
$var reg 1 s \DIRTY[2] $end
$upscope $end
$upscope $end
$scope module data_cache_tb $end
$scope module my_data_cache $end
$var reg 1 t \DIRTY[3] $end
$upscope $end
$upscope $end
$scope module data_cache_tb $end
$scope module my_data_cache $end
$var reg 1 u \DIRTY[4] $end
$upscope $end
$upscope $end
$scope module data_cache_tb $end
$scope module my_data_cache $end
$var reg 1 v \DIRTY[5] $end
$upscope $end
$upscope $end
$scope module data_cache_tb $end
$scope module my_data_cache $end
$var reg 1 w \DIRTY[6] $end
$upscope $end
$upscope $end
$scope module data_cache_tb $end
$scope module my_data_cache $end
$var reg 1 x \DIRTY[7] $end
$upscope $end
$upscope $end
$scope module data_cache_tb $end
$scope module my_data_cache $end
$var reg 1 y \DIRTY[8] $end
$upscope $end
$upscope $end
$scope module data_cache_tb $end
$scope module my_data_cache $end
$var reg 1 z \DIRTY[9] $end
$upscope $end
$upscope $end
$scope module data_cache_tb $end
$scope module my_data_cache $end
$var reg 1 { \DIRTY[10] $end
$upscope $end
$upscope $end
$scope module data_cache_tb $end
$scope module my_data_cache $end
$var reg 1 | \DIRTY[11] $end
$upscope $end
$upscope $end
$scope module data_cache_tb $end
$scope module my_data_cache $end
$var reg 1 } \DIRTY[12] $end
$upscope $end
$upscope $end
$scope module data_cache_tb $end
$scope module my_data_cache $end
$var reg 1 ~ \DIRTY[13] $end
$upscope $end
$upscope $end
$scope module data_cache_tb $end
$scope module my_data_cache $end
$var reg 1 !" \DIRTY[14] $end
$upscope $end
$upscope $end
$scope module data_cache_tb $end
$scope module my_data_cache $end
$var reg 1 "" \DIRTY[15] $end
$upscope $end
$upscope $end
$scope module data_cache_tb $end
$scope module my_data_cache $end
$var reg 1 #" \VALID[0] $end
$upscope $end
$upscope $end
$scope module data_cache_tb $end
$scope module my_data_cache $end
$var reg 1 $" \VALID[1] $end
$upscope $end
$upscope $end
$scope module data_cache_tb $end
$scope module my_data_cache $end
$var reg 1 %" \VALID[2] $end
$upscope $end
$upscope $end
$scope module data_cache_tb $end
$scope module my_data_cache $end
$var reg 1 &" \VALID[3] $end
$upscope $end
$upscope $end
$scope module data_cache_tb $end
$scope module my_data_cache $end
$var reg 1 '" \VALID[4] $end
$upscope $end
$upscope $end
$scope module data_cache_tb $end
$scope module my_data_cache $end
$var reg 1 (" \VALID[5] $end
$upscope $end
$upscope $end
$scope module data_cache_tb $end
$scope module my_data_cache $end
$var reg 1 )" \VALID[6] $end
$upscope $end
$upscope $end
$scope module data_cache_tb $end
$scope module my_data_cache $end
$var reg 1 *" \VALID[7] $end
$upscope $end
$upscope $end
$scope module data_cache_tb $end
$scope module my_data_cache $end
$var reg 1 +" \VALID[8] $end
$upscope $end
$upscope $end
$scope module data_cache_tb $end
$scope module my_data_cache $end
$var reg 1 ," \VALID[9] $end
$upscope $end
$upscope $end
$scope module data_cache_tb $end
$scope module my_data_cache $end
$var reg 1 -" \VALID[10] $end
$upscope $end
$upscope $end
$scope module data_cache_tb $end
$scope module my_data_cache $end
$var reg 1 ." \VALID[11] $end
$upscope $end
$upscope $end
$scope module data_cache_tb $end
$scope module my_data_cache $end
$var reg 1 /" \VALID[12] $end
$upscope $end
$upscope $end
$scope module data_cache_tb $end
$scope module my_data_cache $end
$var reg 1 0" \VALID[13] $end
$upscope $end
$upscope $end
$scope module data_cache_tb $end
$scope module my_data_cache $end
$var reg 1 1" \VALID[14] $end
$upscope $end
$upscope $end
$scope module data_cache_tb $end
$scope module my_data_cache $end
$var reg 1 2" \VALID[15] $end
$upscope $end
$upscope $end
$scope module data_cache_tb $end
$scope module my_data_memory $end
$var reg 8 3" \MEM_ARRAY[0] [7:0] $end
$upscope $end
$upscope $end
$scope module data_cache_tb $end
$scope module my_data_memory $end
$var reg 8 4" \MEM_ARRAY[1] [7:0] $end
$upscope $end
$upscope $end
$scope module data_cache_tb $end
$scope module my_data_memory $end
$var reg 8 5" \MEM_ARRAY[2] [7:0] $end
$upscope $end
$upscope $end
$scope module data_cache_tb $end
$scope module my_data_memory $end
$var reg 8 6" \MEM_ARRAY[3] [7:0] $end
$upscope $end
$upscope $end
$scope module data_cache_tb $end
$scope module my_data_memory $end
$var reg 8 7" \MEM_ARRAY[4] [7:0] $end
$upscope $end
$upscope $end
$scope module data_cache_tb $end
$scope module my_data_memory $end
$var reg 8 8" \MEM_ARRAY[5] [7:0] $end
$upscope $end
$upscope $end
$scope module data_cache_tb $end
$scope module my_data_memory $end
$var reg 8 9" \MEM_ARRAY[6] [7:0] $end
$upscope $end
$upscope $end
$scope module data_cache_tb $end
$scope module my_data_memory $end
$var reg 8 :" \MEM_ARRAY[7] [7:0] $end
$upscope $end
$upscope $end
$scope module data_cache_tb $end
$scope module my_data_memory $end
$var reg 8 ;" \MEM_ARRAY[8] [7:0] $end
$upscope $end
$upscope $end
$scope module data_cache_tb $end
$scope module my_data_memory $end
$var reg 8 <" \MEM_ARRAY[9] [7:0] $end
$upscope $end
$upscope $end
$scope module data_cache_tb $end
$scope module my_data_memory $end
$var reg 8 =" \MEM_ARRAY[10] [7:0] $end
$upscope $end
$upscope $end
$scope module data_cache_tb $end
$scope module my_data_memory $end
$var reg 8 >" \MEM_ARRAY[11] [7:0] $end
$upscope $end
$upscope $end
$scope module data_cache_tb $end
$scope module my_data_memory $end
$var reg 8 ?" \MEM_ARRAY[12] [7:0] $end
$upscope $end
$upscope $end
$scope module data_cache_tb $end
$scope module my_data_memory $end
$var reg 8 @" \MEM_ARRAY[13] [7:0] $end
$upscope $end
$upscope $end
$scope module data_cache_tb $end
$scope module my_data_memory $end
$var reg 8 A" \MEM_ARRAY[14] [7:0] $end
$upscope $end
$upscope $end
$scope module data_cache_tb $end
$scope module my_data_memory $end
$var reg 8 B" \MEM_ARRAY[15] [7:0] $end
$upscope $end
$upscope $end
$scope module data_cache_tb $end
$scope module my_data_memory $end
$var reg 8 C" \MEM_ARRAY[16] [7:0] $end
$upscope $end
$upscope $end
$scope module data_cache_tb $end
$scope module my_data_memory $end
$var reg 8 D" \MEM_ARRAY[17] [7:0] $end
$upscope $end
$upscope $end
$scope module data_cache_tb $end
$scope module my_data_memory $end
$var reg 8 E" \MEM_ARRAY[18] [7:0] $end
$upscope $end
$upscope $end
$scope module data_cache_tb $end
$scope module my_data_memory $end
$var reg 8 F" \MEM_ARRAY[19] [7:0] $end
$upscope $end
$upscope $end
$scope module data_cache_tb $end
$scope module my_data_memory $end
$var reg 8 G" \MEM_ARRAY[20] [7:0] $end
$upscope $end
$upscope $end
$scope module data_cache_tb $end
$scope module my_data_memory $end
$var reg 8 H" \MEM_ARRAY[21] [7:0] $end
$upscope $end
$upscope $end
$scope module data_cache_tb $end
$scope module my_data_memory $end
$var reg 8 I" \MEM_ARRAY[22] [7:0] $end
$upscope $end
$upscope $end
$scope module data_cache_tb $end
$scope module my_data_memory $end
$var reg 8 J" \MEM_ARRAY[23] [7:0] $end
$upscope $end
$upscope $end
$scope module data_cache_tb $end
$scope module my_data_memory $end
$var reg 8 K" \MEM_ARRAY[24] [7:0] $end
$upscope $end
$upscope $end
$scope module data_cache_tb $end
$scope module my_data_memory $end
$var reg 8 L" \MEM_ARRAY[25] [7:0] $end
$upscope $end
$upscope $end
$scope module data_cache_tb $end
$scope module my_data_memory $end
$var reg 8 M" \MEM_ARRAY[26] [7:0] $end
$upscope $end
$upscope $end
$scope module data_cache_tb $end
$scope module my_data_memory $end
$var reg 8 N" \MEM_ARRAY[27] [7:0] $end
$upscope $end
$upscope $end
$scope module data_cache_tb $end
$scope module my_data_memory $end
$var reg 8 O" \MEM_ARRAY[28] [7:0] $end
$upscope $end
$upscope $end
$scope module data_cache_tb $end
$scope module my_data_memory $end
$var reg 8 P" \MEM_ARRAY[29] [7:0] $end
$upscope $end
$upscope $end
$scope module data_cache_tb $end
$scope module my_data_memory $end
$var reg 8 Q" \MEM_ARRAY[30] [7:0] $end
$upscope $end
$upscope $end
$scope module data_cache_tb $end
$scope module my_data_memory $end
$var reg 8 R" \MEM_ARRAY[31] [7:0] $end
$upscope $end
$upscope $end
$enddefinitions $end
$comment Show the parameter values. $end
$dumpall
b1 A
b11 @
b10 ?
b0 >
$end
#0
$dumpvars
bx R"
bx Q"
bx P"
bx O"
bx N"
bx M"
bx L"
bx K"
bx J"
bx I"
bx H"
bx G"
bx F"
bx E"
bx D"
bx C"
bx B"
bx A"
bx @"
bx ?"
bx >"
bx ="
bx <"
bx ;"
bx :"
bx 9"
bx 8"
bx 7"
bx 6"
bx 5"
bx 4"
bx 3"
x2"
x1"
x0"
x/"
x."
x-"
x,"
x+"
x*"
x)"
x("
x'"
x&"
x%"
x$"
x#"
x""
x!"
x~
x}
x|
x{
xz
xy
xx
xw
xv
xu
xt
xs
xr
xq
bx p
bx o
bx n
bx m
bx l
bx k
bx j
bx i
bx h
bx g
bx f
bx e
bx d
bx c
bx b
bx a
bx `
bx _
bx ^
bx ]
bx \
bx [
bx Z
bx Y
bx X
bx W
bx V
bx U
bx T
bx S
bx R
bx Q
bx P
xO
bx N
xM
bx L
bx K
bx J
bx I
bx H
bx G
bx F
bx E
bx D
bx C
bx B
bx =
b0xxxxxxxx <
bx ;
b0xxxxxxxxxxxxxxxx :
bx 9
x8
bx 7
x6
bx 5
bx 4
bx 3
x2
x1
bx 0
bx /
b100000 .
bx -
x,
bx +
1*
bx )
x(
bx '
x&
x%
bx $
x#
bx "
bx !
$end
#1
0,
#2
0#
0%
b0 G
b0 I
bx `
bx p
0""
02"
bx _
bx o
0!"
01"
bx ^
bx n
0~
00"
bx ]
bx m
0}
0/"
bx \
bx l
0|
0."
bx [
bx k
0{
0-"
bx Z
bx j
0z
0,"
bx Y
bx i
0y
0+"
bx X
bx h
0x
0*"
bx W
bx g
0w
0)"
bx V
bx f
0v
0("
bx U
bx e
0u
0'"
bx T
bx d
0t
0&"
bx S
bx c
0s
0%"
bx R
bx b
0r
0$"
bx Q
0(
bx a
0q
0#"
b10000 J
0O
0M
0&
b0 R"
b0 Q"
b0 P"
b0 O"
b0 N"
b0 M"
b0 L"
b0 K"
b0 J"
b0 I"
b0 H"
b0 G"
b0 F"
b0 E"
b0 D"
b0 C"
b0 B"
b0 A"
b0 @"
b0 ?"
b0 >"
b0 ="
b0 <"
b0 ;"
b0 :"
b0 9"
b0 8"
b0 7"
b0 6"
b0 5"
b0 4"
b0 3"
b10000000000000000000 P
1,
#3
b10 G
02
06
01
1(
b0 )
b0 /
b1010 +
b1010 4
0,
#4
0*
#8
1M
1&
b0 '
b0 E
b0 K
1%
b10 G
b10 I
1*
#12
0*
#16
b0 $
b0 9
b0 N
b11 G
0M
0&
1*
#20
0*
#24
18
b0 !
b0 H
12
b0 3
b0 D
b0 a
b0 5
1#"
16
0q
b0 Q
b0 0
b0 G
b11 I
1*
#28
0*
#32
bx '
bx E
bx K
0%
b0 I
0(
1q
11
1*
#36
0*
#40
1q
1*
#44
0*
#48
1q
1*
#52
0*
#56
1q
1*
#60
0*
#64
1q
1*
#68
0*
#72
1q
1*
#76
0*
#80
1q
1*
#84
0*
#88
1q
1*
#92
0*
#96
1q
1*
#100
0*
#104
1q
1*
#108
0*
#112
1q
1*
#116
0*
#120
1q
1*
#124
0*
#128
1q
1*
#132
0*
#136
1q
1*
#140
0*
#144
1q
1*
#148
0*
#152
1q
1*
#156
0*
#160
1q
1*
#164
0*
#168
1q
1*
#172
0*
#176
1q
1*
#180
0*
#184
1q
1*
#186
1(
b10101011110011010001001000110100 -
b10101011110011010001001000110100 7
b1011 +
b1011 4
#188
0*
#192
0(
b110100 Q
b110100 0
1q
1*
#196
b110100 <
b110100 =
b110100 !
b110100 H
b110100 B
1(
0*
b1000 +
b1000 4
#200
0(
1q
1*
#204
0*
#208
1q
1*
#212
0*
#216
1q
1*
#220
0*
#224
1q
1*
#228
0*
#232
1q
1*
#236
0*
#240
1q
1*
#244
0*
#248
1q
1*
#252
0*
#256
1q
1*
#260
0*
#264
1q
1*
#268
0*
#272
1q
1*
#276
0*
#280
1q
1*
#284
0*
#288
1q
1*
#292
0*
#296
1q
1*
#300
0*
#304
1q
1*
#308
0*
#312
1q
1*
#316
0*
#320
1q
1*
#324
0*
#328
1q
1*
#332
0*
#336
1q
1*
#340
0*
#344
1q
1*
#348
0*
#352
1q
1*
#356
0*
#360
1q
1*
#364
0*
#368
1q
1*
#372
0*
#376
1q
1*
#380
0*
#384
1q
1*
#388
0*
#392
1q
1*
#396
0*
#400
1q
1*
#404
0*
#408
1q
1*
#412
0*
#416
1q
1*
#420
0*
#424
1q
1*
#428
0*
#432
1q
1*
#436
0*
#440
1q
1*
#444
0*
#448
1q
1*
#452
0*
#456
1q
1*
#460
0*
#464
1q
1*
#468
0*
#472
1q
1*
#476
0*
#480
1q
1*
#484
0*
#488
1q
1*
#492
0*
#496
1q
1*
#500
0*
#504
1q
1*
#508
0*
#512
1q
1*
#516
0*
#520
1q
1*
#524
0*
#528
1q
1*
#532
0*
#536
1q
1*
#540
0*
#544
1q
1*
#548
0*
#552
1q
1*
#556
0*
#560
1q
1*
#564
0*
#568
1q
1*
#572
0*
#576
1q
1*
#580
0*
#584
1q
1*
#588
0*
#592
1q
1*
#596
0*
#600
1q
1*
#604
0*
#608
1q
1*
#612
0*
#616
1q
1*
#620
0*
#624
1q
1*
#628
0*
#632
1q
1*
#636
0*
#640
1q
1*
#644
0*
#648
1q
1*
#652
0*
#656
1q
1*
#660
0*
#664
1q
1*
#668
0*
#672
1q
1*
#676
0*
#680
1q
1*
#684
0*
#688
1q
1*
#692
0*
#696
1q
1*
